{
    "success": true,
    "data": {
        "current_page": 1,
        "data": [
            {
                "id": 14,
                "name": "jundi15",
                "email": "jundi15@mail.com",
                "role": "masyarakat",
                "nik": "1471061145678765",
                "no_wa": "+6282172117123"
            },
            {
                "id": 13,
                "name": "jundi12",
                "email": "jundi12@mail.com",
                "role": "masyarakat",
                "nik": "1471061110765432",
                "no_wa": "+6281278908765"
            },
            {
                "id": 12,
                "name": "jundi11",
                "email": "jundi11@mail.com",
                "role": "masyarakat",
                "nik": "1471061140940000",
                "no_wa": "+6282167543678"
            },
            {
                "id": 11,
                "name": "jundi 7",
                "email": "jundi7@mail.com",
                "role": "masyarakat",
                "nik": "1471061110940000",
                "no_wa": "+6282172117021"
            },
            {
                "id": 10,
                "name": "jundi 6",
                "email": "jundi6@mail.com",
                "role": "masyarakat",
                "nik": "1471061110940061",
                "no_wa": "+6282172117002"
            },
            {
                "id": 9,
                "name": "jundi5",
                "email": "jundi5@mail.com",
                "role": "masyarakat",
                "nik": "1471061110940067",
                "no_wa": "+6282178980976"
            },
            {
                "id": 8,
                "name": "jundi4",
                "email": "jundi4@mail.com",
                "role": "masyarakat",
                "nik": "1471061110940065",
                "no_wa": "+6282178456754"
            },
            {
                "id": 7,
                "name": "jundi3",
                "email": "jundi3@mail.com",
                "role": "masyarakat",
                "nik": "1471061110940049",
                "no_wa": "+6282156786543"
            },
            {
                "id": 6,
                "name": "Jundi 2",
                "email": "jundi2@mail.com",
                "role": "masyarakat",
                "nik": "1471061110940041",
                "no_wa": "+6289680655432"
            },
            {
                "id": 5,
                "name": "jundialfaruqi",
                "email": "jundi@mail.com",
                "role": "masyarakat",
                "nik": "1471061110940043",
                "no_wa": "+6282172117001"
            }
        ],
        "first_page_url": "https://api.fsetiawan.my.id/api/v1/master/user?page=1",
        "from": 1,
        "last_page": 2,
        "last_page_url": "https://api.fsetiawan.my.id/api/v1/master/user?page=2",
        "links": [
            {
                "url": null,
                "label": "pagination.previous",
                "page": null,
                "active": false
            },
            {
                "url": "https://api.fsetiawan.my.id/api/v1/master/user?page=1",
                "label": "1",
                "page": 1,
                "active": true
            },
            {
                "url": "https://api.fsetiawan.my.id/api/v1/master/user?page=2",
                "label": "2",
                "page": 2,
                "active": false
            },
            {
                "url": "https://api.fsetiawan.my.id/api/v1/master/user?page=2",
                "label": "pagination.next",
                "page": 2,
                "active": false
            }
        ],
        "next_page_url": "https://api.fsetiawan.my.id/api/v1/master/user?page=2",
        "path": "https://api.fsetiawan.my.id/api/v1/master/user",
        "per_page": 10,
        "prev_page_url": null,
        "to": 10,
        "total": 12
    }
}
