{
    "success": true,
    "data": {
        "current_page": 1,
        "data": [
            {
                "id": 7,
                "user_id": 3,
                "kode_booking": "BK-20260201-MIYU",
                "lapangan_id": 1,
                "tanggal": "2026-03-31T00:00:00.000000Z",
                "jam_mulai": "10:00:00",
                "jam_selesai": "11:00:00",
                "nama_komunitas": null,
                "jumlah_pemain": 1,
                "kategori_pemain": "dewasa",
                "jenis_permainan": "fun_match",
                "status": "dibatalkan",
                "keterangan": "Dibatalkan oleh admin",
                "created_at": "2026-02-01T19:54:41.000000Z",
                "updated_at": "2026-02-02T10:12:10.000000Z",
                "user": {
                    "id": 3,
                    "name": "test",
                    "email": "test1@gmail.com"
                },
                "lapangan": {
                    "id": 1,
                    "nama_lapangan": "Kencana Minisoccer",
                    "status_label": "-"
                }
            },
            {
                "id": 25,
                "user_id": 18,
                "kode_booking": "BK-20260203-JYVK",
                "lapangan_id": 1,
                "tanggal": "2026-03-31T00:00:00.000000Z",
                "jam_mulai": "15:00:00",
                "jam_selesai": "16:00:00",
                "nama_komunitas": null,
                "jumlah_pemain": 1,
                "kategori_pemain": "anak-anak",
                "jenis_permainan": "fun_match",
                "status": "dipesan",
                "keterangan": null,
                "created_at": "2026-02-03T04:29:41.000000Z",
                "updated_at": "2026-02-03T04:29:41.000000Z",
                "user": {
                    "id": 18,
                    "name": "Test 2",
                    "email": "test2@mail.com"
                },
                "lapangan": {
                    "id": 1,
                    "nama_lapangan": "Kencana Minisoccer",
                    "status_label": "-"
                }
            },
            {
                "id": 24,
                "user_id": 18,
                "kode_booking": "BK-20260203-SOS0",
                "lapangan_id": 1,
                "tanggal": "2026-03-24T00:00:00.000000Z",
                "jam_mulai": "11:00:00",
                "jam_selesai": "12:00:00",
                "nama_komunitas": null,
                "jumlah_pemain": 3,
                "kategori_pemain": "anak-anak",
                "jenis_permainan": "fun_match",
                "status": "dipesan",
                "keterangan": null,
                "created_at": "2026-02-03T04:26:13.000000Z",
                "updated_at": "2026-02-03T04:26:13.000000Z",
                "user": {
                    "id": 18,
                    "name": "Test 2",
                    "email": "test2@mail.com"
                },
                "lapangan": {
                    "id": 1,
                    "nama_lapangan": "Kencana Minisoccer",
                    "status_label": "-"
                }
            },
            {
                "id": 12,
                "user_id": 17,
                "kode_booking": "BK-20260201-V1QT",
                "lapangan_id": 1,
                "tanggal": "2026-03-23T00:00:00.000000Z",
                "jam_mulai": "19:00:00",
                "jam_selesai": "20:00:00",
                "nama_komunitas": "KOMINFO",
                "jumlah_pemain": 10,
                "kategori_pemain": "dewasa",
                "jenis_permainan": "fun_match",
                "status": "dibatalkan",
                "keterangan": "Dibatalkan oleh user",
                "created_at": "2026-02-01T21:57:22.000000Z",
                "updated_at": "2026-02-03T17:23:58.000000Z",
                "user": {
                    "id": 17,
                    "name": "M Jundi Al Faruqi",
                    "email": "jundi@mail.com"
                },
                "lapangan": {
                    "id": 1,
                    "nama_lapangan": "Kencana Minisoccer",
                    "status_label": "-"
                }
            },
            {
                "id": 9,
                "user_id": 3,
                "kode_booking": "BK-20260201-2MPX",
                "lapangan_id": 1,
                "tanggal": "2026-03-22T00:00:00.000000Z",
                "jam_mulai": "10:00:00",
                "jam_selesai": "11:00:00",
                "nama_komunitas": null,
                "jumlah_pemain": 1,
                "kategori_pemain": "dewasa",
                "jenis_permainan": "fun_match",
                "status": "dipesan",
                "keterangan": null,
                "created_at": "2026-02-01T20:03:19.000000Z",
                "updated_at": "2026-02-01T20:03:19.000000Z",
                "user": {
                    "id": 3,
                    "name": "test",
                    "email": "test1@gmail.com"
                },
                "lapangan": {
                    "id": 1,
                    "nama_lapangan": "Kencana Minisoccer",
                    "status_label": "-"
                }
            },
            {
                "id": 23,
                "user_id": 18,
                "kode_booking": "BK-20260203-Z6HV",
                "lapangan_id": 1,
                "tanggal": "2026-03-17T00:00:00.000000Z",
                "jam_mulai": "12:00:00",
                "jam_selesai": "13:00:00",
                "nama_komunitas": "1",
                "jumlah_pemain": 1,
                "kategori_pemain": "anak-anak",
                "jenis_permainan": "fun_match",
                "status": "dipesan",
                "keterangan": null,
                "created_at": "2026-02-03T04:25:15.000000Z",
                "updated_at": "2026-02-03T04:25:15.000000Z",
                "user": {
                    "id": 18,
                    "name": "Test 2",
                    "email": "test2@mail.com"
                },
                "lapangan": {
                    "id": 1,
                    "nama_lapangan": "Kencana Minisoccer",
                    "status_label": "-"
                }
            },
            {
                "id": 21,
                "user_id": 18,
                "kode_booking": "BK-20260202-FUB1",
                "lapangan_id": 1,
                "tanggal": "2026-03-10T00:00:00.000000Z",
                "jam_mulai": "08:00:00",
                "jam_selesai": "09:00:00",
                "nama_komunitas": null,
                "jumlah_pemain": 1,
                "kategori_pemain": "remaja",
                "jenis_permainan": "fun_match",
                "status": "dipesan",
                "keterangan": null,
                "created_at": "2026-02-02T20:48:31.000000Z",
                "updated_at": "2026-02-02T20:48:31.000000Z",
                "user": {
                    "id": 18,
                    "name": "Test 2",
                    "email": "test2@mail.com"
                },
                "lapangan": {
                    "id": 1,
                    "nama_lapangan": "Kencana Minisoccer",
                    "status_label": "-"
                }
            },
            {
                "id": 22,
                "user_id": 19,
                "kode_booking": "BK-20260203-OJBK",
                "lapangan_id": 1,
                "tanggal": "2026-03-10T00:00:00.000000Z",
                "jam_mulai": "09:00:00",
                "jam_selesai": "10:00:00",
                "nama_komunitas": null,
                "jumlah_pemain": 1,
                "kategori_pemain": "anak-anak",
                "jenis_permainan": "latihan",
                "status": "dipesan",
                "keterangan": null,
                "created_at": "2026-02-03T04:16:37.000000Z",
                "updated_at": "2026-02-03T04:16:37.000000Z",
                "user": {
                    "id": 19,
                    "name": "Test 3",
                    "email": "test3@mail.com"
                },
                "lapangan": {
                    "id": 1,
                    "nama_lapangan": "Kencana Minisoccer",
                    "status_label": "-"
                }
            },
            {
                "id": 6,
                "user_id": 3,
                "kode_booking": "BK-20260201-YY8M",
                "lapangan_id": 1,
                "tanggal": "2026-03-10T00:00:00.000000Z",
                "jam_mulai": "14:00:00",
                "jam_selesai": "15:00:00",
                "nama_komunitas": null,
                "jumlah_pemain": 1,
                "kategori_pemain": "dewasa",
                "jenis_permainan": "fun_match",
                "status": "dipesan",
                "keterangan": null,
                "created_at": "2026-02-01T19:54:26.000000Z",
                "updated_at": "2026-02-01T19:54:26.000000Z",
                "user": {
                    "id": 3,
                    "name": "test",
                    "email": "test1@gmail.com"
                },
                "lapangan": {
                    "id": 1,
                    "nama_lapangan": "Kencana Minisoccer",
                    "status_label": "-"
                }
            },
            {
                "id": 10,
                "user_id": 3,
                "kode_booking": "BK-20260201-YLU7",
                "lapangan_id": 1,
                "tanggal": "2026-03-05T00:00:00.000000Z",
                "jam_mulai": "14:00:00",
                "jam_selesai": "15:00:00",
                "nama_komunitas": null,
                "jumlah_pemain": 1,
                "kategori_pemain": "dewasa",
                "jenis_permainan": "fun_match",
                "status": "dipesan",
                "keterangan": null,
                "created_at": "2026-02-01T20:13:46.000000Z",
                "updated_at": "2026-02-01T20:13:46.000000Z",
                "user": {
                    "id": 3,
                    "name": "test",
                    "email": "test1@gmail.com"
                },
                "lapangan": {
                    "id": 1,
                    "nama_lapangan": "Kencana Minisoccer",
                    "status_label": "-"
                }
            },
            {
                "id": 20,
                "user_id": 18,
                "kode_booking": "BK-20260202-KGEX",
                "lapangan_id": 1,
                "tanggal": "2026-03-03T00:00:00.000000Z",
                "jam_mulai": "08:00:00",
                "jam_selesai": "09:00:00",
                "nama_komunitas": null,
                "jumlah_pemain": 1,
                "kategori_pemain": "remaja",
                "jenis_permainan": "turnamen_kecil",
                "status": "dipesan",
                "keterangan": null,
                "created_at": "2026-02-02T20:46:25.000000Z",
                "updated_at": "2026-02-02T20:46:25.000000Z",
                "user": {
                    "id": 18,
                    "name": "Test 2",
                    "email": "test2@mail.com"
                },
                "lapangan": {
                    "id": 1,
                    "nama_lapangan": "Kencana Minisoccer",
                    "status_label": "-"
                }
            },
            {
                "id": 13,
                "user_id": 17,
                "kode_booking": "BK-20260201-UU31",
                "lapangan_id": 1,
                "tanggal": "2026-03-02T00:00:00.000000Z",
                "jam_mulai": "21:00:00",
                "jam_selesai": "22:00:00",
                "nama_komunitas": null,
                "jumlah_pemain": 10,
                "kategori_pemain": "remaja",
                "jenis_permainan": "fun_match",
                "status": "dibatalkan",
                "keterangan": "Dibatalkan oleh user",
                "created_at": "2026-02-01T22:04:39.000000Z",
                "updated_at": "2026-02-03T17:20:17.000000Z",
                "user": {
                    "id": 17,
                    "name": "M Jundi Al Faruqi",
                    "email": "jundi@mail.com"
                },
                "lapangan": {
                    "id": 1,
                    "nama_lapangan": "Kencana Minisoccer",
                    "status_label": "-"
                }
            },
            {
                "id": 15,
                "user_id": 17,
                "kode_booking": "BK-20260202-KHZT",
                "lapangan_id": 1,
                "tanggal": "2026-02-28T00:00:00.000000Z",
                "jam_mulai": "21:00:00",
                "jam_selesai": "22:00:00",
                "nama_komunitas": "KOMINFO",
                "jumlah_pemain": 10,
                "kategori_pemain": "dewasa",
                "jenis_permainan": "turnamen_kecil",
                "status": "dibatalkan",
                "keterangan": "Dibatalkan oleh user",
                "created_at": "2026-02-02T17:48:05.000000Z",
                "updated_at": "2026-02-03T17:20:54.000000Z",
                "user": {
                    "id": 17,
                    "name": "M Jundi Al Faruqi",
                    "email": "jundi@mail.com"
                },
                "lapangan": {
                    "id": 1,
                    "nama_lapangan": "Kencana Minisoccer",
                    "status_label": "-"
                }
            },
            {
                "id": 11,
                "user_id": 3,
                "kode_booking": "BK-20260201-3U07",
                "lapangan_id": 1,
                "tanggal": "2026-02-25T00:00:00.000000Z",
                "jam_mulai": "11:00:00",
                "jam_selesai": "12:00:00",
                "nama_komunitas": null,
                "jumlah_pemain": 12,
                "kategori_pemain": "anak-anak",
                "jenis_permainan": "latihan",
                "status": "dipesan",
                "keterangan": null,
                "created_at": "2026-02-01T21:22:53.000000Z",
                "updated_at": "2026-02-01T21:22:53.000000Z",
                "user": {
                    "id": 3,
                    "name": "test",
                    "email": "test1@gmail.com"
                },
                "lapangan": {
                    "id": 1,
                    "nama_lapangan": "Kencana Minisoccer",
                    "status_label": "-"
                }
            },
            {
                "id": 19,
                "user_id": 18,
                "kode_booking": "BK-20260202-Z17Q",
                "lapangan_id": 1,
                "tanggal": "2026-02-24T00:00:00.000000Z",
                "jam_mulai": "12:00:00",
                "jam_selesai": "13:00:00",
                "nama_komunitas": null,
                "jumlah_pemain": 2,
                "kategori_pemain": "dewasa",
                "jenis_permainan": "fun_match",
                "status": "dipesan",
                "keterangan": null,
                "created_at": "2026-02-02T20:37:18.000000Z",
                "updated_at": "2026-02-02T20:37:18.000000Z",
                "user": {
                    "id": 18,
                    "name": "Test 2",
                    "email": "test2@mail.com"
                },
                "lapangan": {
                    "id": 1,
                    "nama_lapangan": "Kencana Minisoccer",
                    "status_label": "-"
                }
            }
        ],
        "first_page_url": "https://amanarena-api.pekanbaru.go.id/api/v1/master/bookings?page=1",
        "from": 1,
        "last_page": 3,
        "last_page_url": "https://amanarena-api.pekanbaru.go.id/api/v1/master/bookings?page=3",
        "links": [
            {
                "url": null,
                "label": "&laquo; Previous",
                "page": null,
                "active": false
            },
            {
                "url": "https://amanarena-api.pekanbaru.go.id/api/v1/master/bookings?page=1",
                "label": "1",
                "page": 1,
                "active": true
            },
            {
                "url": "https://amanarena-api.pekanbaru.go.id/api/v1/master/bookings?page=2",
                "label": "2",
                "page": 2,
                "active": false
            },
            {
                "url": "https://amanarena-api.pekanbaru.go.id/api/v1/master/bookings?page=3",
                "label": "3",
                "page": 3,
                "active": false
            },
            {
                "url": "https://amanarena-api.pekanbaru.go.id/api/v1/master/bookings?page=2",
                "label": "Next &raquo;",
                "page": 2,
                "active": false
            }
        ],
        "next_page_url": "https://amanarena-api.pekanbaru.go.id/api/v1/master/bookings?page=2",
        "path": "https://amanarena-api.pekanbaru.go.id/api/v1/master/bookings",
        "per_page": 15,
        "prev_page_url": null,
        "to": 15,
        "total": 34
    }
}
